cache_tb_output.txt
VCD info: dumpfile cache_test.vcd opened for output.

=== PHASE 1: Sequential Set Testing ===

Testing Set 0
Operation complete after 0 cycles
Hit: 1, Read Data: 00000000

Cache State at time 175000:
Set 0: Valid[0]=1 Tag[0]=0000000 Data[0]=11111111 Age[0]=0
      Valid[1]=0 Tag[1]=0000000 Data[1]=00000000 Age[1]=6
Set 1: Valid[0]=0 Tag[0]=0000000 Data[0]=00000000 Age[0]=0
      Valid[1]=0 Tag[1]=0000000 Data[1]=00000000 Age[1]=0
Set 2: Valid[0]=0 Tag[0]=0000000 Data[0]=00000000 Age[0]=0
      Valid[1]=0 Tag[1]=0000000 Data[1]=00000000 Age[1]=0
Set 3: Valid[0]=0 Tag[0]=0000000 Data[0]=00000000 Age[0]=0
      Valid[1]=0 Tag[1]=0000000 Data[1]=00000000 Age[1]=0

Operation complete after 0 cycles
Hit: 1, Read Data: 11111111

Cache State at time 215000:
Set 0: Valid[0]=1 Tag[0]=0000000 Data[0]=11111111 Age[0]=0
      Valid[1]=0 Tag[1]=0000000 Data[1]=00000000 Age[1]=1
Set 1: Valid[0]=0 Tag[0]=0000000 Data[0]=00000000 Age[0]=0
      Valid[1]=0 Tag[1]=0000000 Data[1]=00000000 Age[1]=0
Set 2: Valid[0]=0 Tag[0]=0000000 Data[0]=00000000 Age[0]=0
      Valid[1]=0 Tag[1]=0000000 Data[1]=00000000 Age[1]=0
Set 3: Valid[0]=0 Tag[0]=0000000 Data[0]=00000000 Age[0]=0
      Valid[1]=0 Tag[1]=0000000 Data[1]=00000000 Age[1]=0

Operation complete after 0 cycles
Hit: 1, Read Data: 11111111

Cache State at time 255000:
Set 0: Valid[0]=1 Tag[0]=0000000 Data[0]=22222222 Age[0]=0
      Valid[1]=0 Tag[1]=0000000 Data[1]=00000000 Age[1]=4
Set 1: Valid[0]=0 Tag[0]=0000000 Data[0]=00000000 Age[0]=0
      Valid[1]=0 Tag[1]=0000000 Data[1]=00000000 Age[1]=0
Set 2: Valid[0]=0 Tag[0]=0000000 Data[0]=00000000 Age[0]=0
      Valid[1]=0 Tag[1]=0000000 Data[1]=00000000 Age[1]=0
Set 3: Valid[0]=0 Tag[0]=0000000 Data[0]=00000000 Age[0]=0
      Valid[1]=0 Tag[1]=0000000 Data[1]=00000000 Age[1]=0

Operation complete after 0 cycles
Hit: 1, Read Data: 22222222

Cache State at time 295000:
Set 0: Valid[0]=1 Tag[0]=0000000 Data[0]=22222222 Age[0]=3
      Valid[1]=1 Tag[1]=0000040 Data[1]=22222222 Age[1]=0
Set 1: Valid[0]=0 Tag[0]=0000000 Data[0]=00000000 Age[0]=0
      Valid[1]=0 Tag[1]=0000000 Data[1]=00000000 Age[1]=0
Set 2: Valid[0]=0 Tag[0]=0000000 Data[0]=00000000 Age[0]=0
      Valid[1]=0 Tag[1]=0000000 Data[1]=00000000 Age[1]=0
Set 3: Valid[0]=0 Tag[0]=0000000 Data[0]=00000000 Age[0]=0
      Valid[1]=0 Tag[1]=0000000 Data[1]=00000000 Age[1]=0

Operation complete after 0 cycles
Hit: 1, Read Data: 22222222

Cache State at time 335000:
Set 0: Valid[0]=1 Tag[0]=0000000 Data[0]=22222222 Age[0]=0
      Valid[1]=1 Tag[1]=0000040 Data[1]=22222222 Age[1]=1
Set 1: Valid[0]=0 Tag[0]=0000000 Data[0]=00000000 Age[0]=0
      Valid[1]=0 Tag[1]=0000000 Data[1]=00000000 Age[1]=0
Set 2: Valid[0]=0 Tag[0]=0000000 Data[0]=00000000 Age[0]=0
      Valid[1]=0 Tag[1]=0000000 Data[1]=00000000 Age[1]=0
Set 3: Valid[0]=0 Tag[0]=0000000 Data[0]=00000000 Age[0]=0
      Valid[1]=0 Tag[1]=0000000 Data[1]=00000000 Age[1]=0


Testing Set 1
Operation complete after 0 cycles
Hit: 1, Read Data: 22222222

Cache State at time 375000:
Set 0: Valid[0]=1 Tag[0]=0000000 Data[0]=11111112 Age[0]=0
      Valid[1]=1 Tag[1]=0000040 Data[1]=22222222 Age[1]=4
Set 1: Valid[0]=0 Tag[0]=0000000 Data[0]=00000000 Age[0]=0
      Valid[1]=0 Tag[1]=0000000 Data[1]=00000000 Age[1]=0
Set 2: Valid[0]=0 Tag[0]=0000000 Data[0]=00000000 Age[0]=0
      Valid[1]=0 Tag[1]=0000000 Data[1]=00000000 Age[1]=0
Set 3: Valid[0]=0 Tag[0]=0000000 Data[0]=00000000 Age[0]=0
      Valid[1]=0 Tag[1]=0000000 Data[1]=00000000 Age[1]=0

Operation complete after 0 cycles
Hit: 1, Read Data: 11111112

Cache State at time 415000:
Set 0: Valid[0]=1 Tag[0]=0000000 Data[0]=11111112 Age[0]=0
      Valid[1]=1 Tag[1]=0000040 Data[1]=22222222 Age[1]=4
Set 1: Valid[0]=1 Tag[0]=0000000 Data[0]=11111112 Age[0]=0
      Valid[1]=0 Tag[1]=0000000 Data[1]=00000000 Age[1]=3
Set 2: Valid[0]=0 Tag[0]=0000000 Data[0]=00000000 Age[0]=0
      Valid[1]=0 Tag[1]=0000000 Data[1]=00000000 Age[1]=0
Set 3: Valid[0]=0 Tag[0]=0000000 Data[0]=00000000 Age[0]=0
      Valid[1]=0 Tag[1]=0000000 Data[1]=00000000 Age[1]=0

Operation complete after 0 cycles
Hit: 1, Read Data: 11111112

Cache State at time 455000:
Set 0: Valid[0]=1 Tag[0]=0000000 Data[0]=11111112 Age[0]=0
      Valid[1]=1 Tag[1]=0000040 Data[1]=22222222 Age[1]=4
Set 1: Valid[0]=1 Tag[0]=0000000 Data[0]=22222223 Age[0]=0
      Valid[1]=0 Tag[1]=0000000 Data[1]=00000000 Age[1]=6
Set 2: Valid[0]=0 Tag[0]=0000000 Data[0]=00000000 Age[0]=0
      Valid[1]=0 Tag[1]=0000000 Data[1]=00000000 Age[1]=0
Set 3: Valid[0]=0 Tag[0]=0000000 Data[0]=00000000 Age[0]=0
      Valid[1]=0 Tag[1]=0000000 Data[1]=00000000 Age[1]=0

Operation complete after 0 cycles
Hit: 1, Read Data: 22222223

Cache State at time 495000:
Set 0: Valid[0]=1 Tag[0]=0000000 Data[0]=11111112 Age[0]=0
      Valid[1]=1 Tag[1]=0000040 Data[1]=22222222 Age[1]=4
Set 1: Valid[0]=1 Tag[0]=0000000 Data[0]=22222223 Age[0]=3
      Valid[1]=1 Tag[1]=0000040 Data[1]=22222223 Age[1]=0
Set 2: Valid[0]=0 Tag[0]=0000000 Data[0]=00000000 Age[0]=0
      Valid[1]=0 Tag[1]=0000000 Data[1]=00000000 Age[1]=0
Set 3: Valid[0]=0 Tag[0]=0000000 Data[0]=00000000 Age[0]=0
      Valid[1]=0 Tag[1]=0000000 Data[1]=00000000 Age[1]=0

Operation complete after 0 cycles
Hit: 1, Read Data: 22222223

Cache State at time 535000:
Set 0: Valid[0]=1 Tag[0]=0000000 Data[0]=11111112 Age[0]=0
      Valid[1]=1 Tag[1]=0000040 Data[1]=22222222 Age[1]=4
Set 1: Valid[0]=1 Tag[0]=0000000 Data[0]=22222223 Age[0]=0
      Valid[1]=1 Tag[1]=0000040 Data[1]=22222223 Age[1]=1
Set 2: Valid[0]=0 Tag[0]=0000000 Data[0]=00000000 Age[0]=0
      Valid[1]=0 Tag[1]=0000000 Data[1]=00000000 Age[1]=0
Set 3: Valid[0]=0 Tag[0]=0000000 Data[0]=00000000 Age[0]=0
      Valid[1]=0 Tag[1]=0000000 Data[1]=00000000 Age[1]=0


Testing Set 2
Operation complete after 0 cycles
Hit: 1, Read Data: 22222223

Cache State at time 575000:
Set 0: Valid[0]=1 Tag[0]=0000000 Data[0]=11111112 Age[0]=0
      Valid[1]=1 Tag[1]=0000040 Data[1]=22222222 Age[1]=4
Set 1: Valid[0]=1 Tag[0]=0000000 Data[0]=11111113 Age[0]=0
      Valid[1]=1 Tag[1]=0000040 Data[1]=22222223 Age[1]=4
Set 2: Valid[0]=0 Tag[0]=0000000 Data[0]=00000000 Age[0]=0
      Valid[1]=0 Tag[1]=0000000 Data[1]=00000000 Age[1]=0
Set 3: Valid[0]=0 Tag[0]=0000000 Data[0]=00000000 Age[0]=0
      Valid[1]=0 Tag[1]=0000000 Data[1]=00000000 Age[1]=0

Operation complete after 0 cycles
Hit: 1, Read Data: 11111113

Cache State at time 615000:
Set 0: Valid[0]=1 Tag[0]=0000000 Data[0]=11111112 Age[0]=0
      Valid[1]=1 Tag[1]=0000040 Data[1]=22222222 Age[1]=4
Set 1: Valid[0]=1 Tag[0]=0000000 Data[0]=11111113 Age[0]=0
      Valid[1]=1 Tag[1]=0000040 Data[1]=22222223 Age[1]=4
Set 2: Valid[0]=1 Tag[0]=0000000 Data[0]=11111113 Age[0]=0
      Valid[1]=0 Tag[1]=0000000 Data[1]=00000000 Age[1]=3
Set 3: Valid[0]=0 Tag[0]=0000000 Data[0]=00000000 Age[0]=0
      Valid[1]=0 Tag[1]=0000000 Data[1]=00000000 Age[1]=0

Operation complete after 0 cycles
Hit: 1, Read Data: 11111113

Cache State at time 655000:
Set 0: Valid[0]=1 Tag[0]=0000000 Data[0]=11111112 Age[0]=0
      Valid[1]=1 Tag[1]=0000040 Data[1]=22222222 Age[1]=4
Set 1: Valid[0]=1 Tag[0]=0000000 Data[0]=11111113 Age[0]=0
      Valid[1]=1 Tag[1]=0000040 Data[1]=22222223 Age[1]=4
Set 2: Valid[0]=1 Tag[0]=0000000 Data[0]=22222224 Age[0]=0
      Valid[1]=0 Tag[1]=0000000 Data[1]=00000000 Age[1]=6
Set 3: Valid[0]=0 Tag[0]=0000000 Data[0]=00000000 Age[0]=0
      Valid[1]=0 Tag[1]=0000000 Data[1]=00000000 Age[1]=0

Operation complete after 0 cycles
Hit: 1, Read Data: 22222224

Cache State at time 695000:
Set 0: Valid[0]=1 Tag[0]=0000000 Data[0]=11111112 Age[0]=0
      Valid[1]=1 Tag[1]=0000040 Data[1]=22222222 Age[1]=4
Set 1: Valid[0]=1 Tag[0]=0000000 Data[0]=11111113 Age[0]=0
      Valid[1]=1 Tag[1]=0000040 Data[1]=22222223 Age[1]=4
Set 2: Valid[0]=1 Tag[0]=0000000 Data[0]=22222224 Age[0]=3
      Valid[1]=1 Tag[1]=0000040 Data[1]=22222224 Age[1]=0
Set 3: Valid[0]=0 Tag[0]=0000000 Data[0]=00000000 Age[0]=0
      Valid[1]=0 Tag[1]=0000000 Data[1]=00000000 Age[1]=0

Operation complete after 0 cycles
Hit: 1, Read Data: 22222224

Cache State at time 735000:
Set 0: Valid[0]=1 Tag[0]=0000000 Data[0]=11111112 Age[0]=0
      Valid[1]=1 Tag[1]=0000040 Data[1]=22222222 Age[1]=4
Set 1: Valid[0]=1 Tag[0]=0000000 Data[0]=11111113 Age[0]=0
      Valid[1]=1 Tag[1]=0000040 Data[1]=22222223 Age[1]=4
Set 2: Valid[0]=1 Tag[0]=0000000 Data[0]=22222224 Age[0]=0
      Valid[1]=1 Tag[1]=0000040 Data[1]=22222224 Age[1]=1
Set 3: Valid[0]=0 Tag[0]=0000000 Data[0]=00000000 Age[0]=0
      Valid[1]=0 Tag[1]=0000000 Data[1]=00000000 Age[1]=0


Testing Set 3
Operation complete after 0 cycles
Hit: 1, Read Data: 22222224

Cache State at time 775000:
Set 0: Valid[0]=1 Tag[0]=0000000 Data[0]=11111112 Age[0]=0
      Valid[1]=1 Tag[1]=0000040 Data[1]=22222222 Age[1]=4
Set 1: Valid[0]=1 Tag[0]=0000000 Data[0]=11111113 Age[0]=0
      Valid[1]=1 Tag[1]=0000040 Data[1]=22222223 Age[1]=4
Set 2: Valid[0]=1 Tag[0]=0000000 Data[0]=11111114 Age[0]=0
      Valid[1]=1 Tag[1]=0000040 Data[1]=22222224 Age[1]=4
Set 3: Valid[0]=0 Tag[0]=0000000 Data[0]=00000000 Age[0]=0
      Valid[1]=0 Tag[1]=0000000 Data[1]=00000000 Age[1]=0

Operation complete after 0 cycles
Hit: 1, Read Data: 11111114

Cache State at time 815000:
Set 0: Valid[0]=1 Tag[0]=0000000 Data[0]=11111112 Age[0]=0
      Valid[1]=1 Tag[1]=0000040 Data[1]=22222222 Age[1]=4
Set 1: Valid[0]=1 Tag[0]=0000000 Data[0]=11111113 Age[0]=0
      Valid[1]=1 Tag[1]=0000040 Data[1]=22222223 Age[1]=4
Set 2: Valid[0]=1 Tag[0]=0000000 Data[0]=11111114 Age[0]=0
      Valid[1]=1 Tag[1]=0000040 Data[1]=22222224 Age[1]=4
Set 3: Valid[0]=1 Tag[0]=0000000 Data[0]=11111114 Age[0]=0
      Valid[1]=0 Tag[1]=0000000 Data[1]=00000000 Age[1]=3

Operation complete after 0 cycles
Hit: 1, Read Data: 11111114

Cache State at time 855000:
Set 0: Valid[0]=1 Tag[0]=0000000 Data[0]=11111112 Age[0]=0
      Valid[1]=1 Tag[1]=0000040 Data[1]=22222222 Age[1]=4
Set 1: Valid[0]=1 Tag[0]=0000000 Data[0]=11111113 Age[0]=0
      Valid[1]=1 Tag[1]=0000040 Data[1]=22222223 Age[1]=4
Set 2: Valid[0]=1 Tag[0]=0000000 Data[0]=11111114 Age[0]=0
      Valid[1]=1 Tag[1]=0000040 Data[1]=22222224 Age[1]=4
Set 3: Valid[0]=1 Tag[0]=0000000 Data[0]=22222225 Age[0]=0
      Valid[1]=0 Tag[1]=0000000 Data[1]=00000000 Age[1]=6

Operation complete after 0 cycles
Hit: 1, Read Data: 22222225

Cache State at time 895000:
Set 0: Valid[0]=1 Tag[0]=0000000 Data[0]=11111112 Age[0]=0
      Valid[1]=1 Tag[1]=0000040 Data[1]=22222222 Age[1]=4
Set 1: Valid[0]=1 Tag[0]=0000000 Data[0]=11111113 Age[0]=0
      Valid[1]=1 Tag[1]=0000040 Data[1]=22222223 Age[1]=4
Set 2: Valid[0]=1 Tag[0]=0000000 Data[0]=11111114 Age[0]=0
      Valid[1]=1 Tag[1]=0000040 Data[1]=22222224 Age[1]=4
Set 3: Valid[0]=1 Tag[0]=0000000 Data[0]=22222225 Age[0]=3
      Valid[1]=1 Tag[1]=0000040 Data[1]=22222225 Age[1]=0

Operation complete after 0 cycles
Hit: 1, Read Data: 22222225

Cache State at time 935000:
Set 0: Valid[0]=1 Tag[0]=0000000 Data[0]=11111112 Age[0]=0
      Valid[1]=1 Tag[1]=0000040 Data[1]=22222222 Age[1]=4
Set 1: Valid[0]=1 Tag[0]=0000000 Data[0]=11111113 Age[0]=0
      Valid[1]=1 Tag[1]=0000040 Data[1]=22222223 Age[1]=4
Set 2: Valid[0]=1 Tag[0]=0000000 Data[0]=11111114 Age[0]=0
      Valid[1]=1 Tag[1]=0000040 Data[1]=22222224 Age[1]=4
Set 3: Valid[0]=1 Tag[0]=0000000 Data[0]=22222225 Age[0]=0
      Valid[1]=1 Tag[1]=0000040 Data[1]=22222225 Age[1]=1


=== PHASE 2: LRU Testing ===

Testing LRU for Set 0
Operation complete after 0 cycles
Hit: 1, Read Data: 22222225

Cache State at time 975000:
Set 0: Valid[0]=1 Tag[0]=0000000 Data[0]=11111112 Age[0]=0
      Valid[1]=1 Tag[1]=0000040 Data[1]=22222222 Age[1]=4
Set 1: Valid[0]=1 Tag[0]=0000000 Data[0]=11111113 Age[0]=0
      Valid[1]=1 Tag[1]=0000040 Data[1]=22222223 Age[1]=4
Set 2: Valid[0]=1 Tag[0]=0000000 Data[0]=11111114 Age[0]=0
      Valid[1]=1 Tag[1]=0000040 Data[1]=22222224 Age[1]=4
Set 3: Valid[0]=1 Tag[0]=0000000 Data[0]=aaaa0000 Age[0]=0
      Valid[1]=1 Tag[1]=0000040 Data[1]=22222225 Age[1]=4

Operation complete after 0 cycles
Hit: 1, Read Data: aaaa0000

Cache State at time 1015000:
Set 0: Valid[0]=1 Tag[0]=0000000 Data[0]=bbbb0000 Age[0]=0
      Valid[1]=1 Tag[1]=0000040 Data[1]=22222222 Age[1]=6
Set 1: Valid[0]=1 Tag[0]=0000000 Data[0]=11111113 Age[0]=0
      Valid[1]=1 Tag[1]=0000040 Data[1]=22222223 Age[1]=4
Set 2: Valid[0]=1 Tag[0]=0000000 Data[0]=11111114 Age[0]=0
      Valid[1]=1 Tag[1]=0000040 Data[1]=22222224 Age[1]=4
Set 3: Valid[0]=1 Tag[0]=0000000 Data[0]=aaaa0000 Age[0]=0
      Valid[1]=1 Tag[1]=0000040 Data[1]=22222225 Age[1]=4

Operation complete after 0 cycles
Hit: 1, Read Data: bbbb0000

Cache State at time 1055000:
Set 0: Valid[0]=1 Tag[0]=0000000 Data[0]=bbbb0000 Age[0]=0
      Valid[1]=1 Tag[1]=0000040 Data[1]=bbbb0000 Age[1]=1
Set 1: Valid[0]=1 Tag[0]=0000000 Data[0]=11111113 Age[0]=0
      Valid[1]=1 Tag[1]=0000040 Data[1]=22222223 Age[1]=4
Set 2: Valid[0]=1 Tag[0]=0000000 Data[0]=11111114 Age[0]=0
      Valid[1]=1 Tag[1]=0000040 Data[1]=22222224 Age[1]=4
Set 3: Valid[0]=1 Tag[0]=0000000 Data[0]=aaaa0000 Age[0]=0
      Valid[1]=1 Tag[1]=0000040 Data[1]=22222225 Age[1]=4

Operation complete after 0 cycles
Hit: 1, Read Data: bbbb0000

Cache State at time 1095000:
Set 0: Valid[0]=1 Tag[0]=0000000 Data[0]=cccc0000 Age[0]=0
      Valid[1]=1 Tag[1]=0000040 Data[1]=bbbb0000 Age[1]=4
Set 1: Valid[0]=1 Tag[0]=0000000 Data[0]=11111113 Age[0]=0
      Valid[1]=1 Tag[1]=0000040 Data[1]=22222223 Age[1]=4
Set 2: Valid[0]=1 Tag[0]=0000000 Data[0]=11111114 Age[0]=0
      Valid[1]=1 Tag[1]=0000040 Data[1]=22222224 Age[1]=4
Set 3: Valid[0]=1 Tag[0]=0000000 Data[0]=aaaa0000 Age[0]=0
      Valid[1]=1 Tag[1]=0000040 Data[1]=22222225 Age[1]=4

Operation complete after 0 cycles
Hit: 1, Read Data: cccc0000

Cache State at time 1135000:
Set 0: Valid[0]=1 Tag[0]=0000000 Data[0]=cccc0000 Age[0]=0
      Valid[1]=1 Tag[1]=0000080 Data[1]=cccc0000 Age[1]=1
Set 1: Valid[0]=1 Tag[0]=0000000 Data[0]=11111113 Age[0]=0
      Valid[1]=1 Tag[1]=0000040 Data[1]=22222223 Age[1]=4
Set 2: Valid[0]=1 Tag[0]=0000000 Data[0]=11111114 Age[0]=0
      Valid[1]=1 Tag[1]=0000040 Data[1]=22222224 Age[1]=4
Set 3: Valid[0]=1 Tag[0]=0000000 Data[0]=aaaa0000 Age[0]=0
      Valid[1]=1 Tag[1]=0000040 Data[1]=22222225 Age[1]=4

Operation complete after 0 cycles
Hit: 1, Read Data: cccc0000

Cache State at time 1175000:
Set 0: Valid[0]=1 Tag[0]=0000000 Data[0]=cccc0000 Age[0]=1
      Valid[1]=1 Tag[1]=0000080 Data[1]=cccc0000 Age[1]=0
Set 1: Valid[0]=1 Tag[0]=0000000 Data[0]=11111113 Age[0]=0
      Valid[1]=1 Tag[1]=0000040 Data[1]=22222223 Age[1]=4
Set 2: Valid[0]=1 Tag[0]=0000000 Data[0]=11111114 Age[0]=0
      Valid[1]=1 Tag[1]=0000040 Data[1]=22222224 Age[1]=4
Set 3: Valid[0]=1 Tag[0]=0000000 Data[0]=aaaa0000 Age[0]=0
      Valid[1]=1 Tag[1]=0000040 Data[1]=22222225 Age[1]=4


Testing LRU for Set 1
Operation complete after 0 cycles
Hit: 1, Read Data: cccc0000

Cache State at time 1215000:
Set 0: Valid[0]=1 Tag[0]=0000000 Data[0]=cccc0000 Age[0]=4
      Valid[1]=1 Tag[1]=0000080 Data[1]=aaaa0001 Age[1]=0
Set 1: Valid[0]=1 Tag[0]=0000000 Data[0]=11111113 Age[0]=0
      Valid[1]=1 Tag[1]=0000040 Data[1]=22222223 Age[1]=4
Set 2: Valid[0]=1 Tag[0]=0000000 Data[0]=11111114 Age[0]=0
      Valid[1]=1 Tag[1]=0000040 Data[1]=22222224 Age[1]=4
Set 3: Valid[0]=1 Tag[0]=0000000 Data[0]=aaaa0000 Age[0]=0
      Valid[1]=1 Tag[1]=0000040 Data[1]=22222225 Age[1]=4

Operation complete after 0 cycles
Hit: 1, Read Data: aaaa0001

Cache State at time 1255000:
Set 0: Valid[0]=1 Tag[0]=0000000 Data[0]=cccc0000 Age[0]=4
      Valid[1]=1 Tag[1]=0000080 Data[1]=aaaa0001 Age[1]=0
Set 1: Valid[0]=1 Tag[0]=0000000 Data[0]=bbbb0001 Age[0]=0
      Valid[1]=1 Tag[1]=0000040 Data[1]=22222223 Age[1]=6
Set 2: Valid[0]=1 Tag[0]=0000000 Data[0]=11111114 Age[0]=0
      Valid[1]=1 Tag[1]=0000040 Data[1]=22222224 Age[1]=4
Set 3: Valid[0]=1 Tag[0]=0000000 Data[0]=aaaa0000 Age[0]=0
      Valid[1]=1 Tag[1]=0000040 Data[1]=22222225 Age[1]=4

Operation complete after 0 cycles
Hit: 1, Read Data: bbbb0001

Cache State at time 1295000:
Set 0: Valid[0]=1 Tag[0]=0000000 Data[0]=cccc0000 Age[0]=4
      Valid[1]=1 Tag[1]=0000080 Data[1]=aaaa0001 Age[1]=0
Set 1: Valid[0]=1 Tag[0]=0000000 Data[0]=bbbb0001 Age[0]=0
      Valid[1]=1 Tag[1]=0000040 Data[1]=bbbb0001 Age[1]=1
Set 2: Valid[0]=1 Tag[0]=0000000 Data[0]=11111114 Age[0]=0
      Valid[1]=1 Tag[1]=0000040 Data[1]=22222224 Age[1]=4
Set 3: Valid[0]=1 Tag[0]=0000000 Data[0]=aaaa0000 Age[0]=0
      Valid[1]=1 Tag[1]=0000040 Data[1]=22222225 Age[1]=4

Operation complete after 0 cycles
Hit: 1, Read Data: bbbb0001

Cache State at time 1335000:
Set 0: Valid[0]=1 Tag[0]=0000000 Data[0]=cccc0000 Age[0]=4
      Valid[1]=1 Tag[1]=0000080 Data[1]=aaaa0001 Age[1]=0
Set 1: Valid[0]=1 Tag[0]=0000000 Data[0]=cccc0001 Age[0]=0
      Valid[1]=1 Tag[1]=0000040 Data[1]=bbbb0001 Age[1]=4
Set 2: Valid[0]=1 Tag[0]=0000000 Data[0]=11111114 Age[0]=0
      Valid[1]=1 Tag[1]=0000040 Data[1]=22222224 Age[1]=4
Set 3: Valid[0]=1 Tag[0]=0000000 Data[0]=aaaa0000 Age[0]=0
      Valid[1]=1 Tag[1]=0000040 Data[1]=22222225 Age[1]=4

Operation complete after 0 cycles
Hit: 1, Read Data: cccc0001

Cache State at time 1375000:
Set 0: Valid[0]=1 Tag[0]=0000000 Data[0]=cccc0000 Age[0]=4
      Valid[1]=1 Tag[1]=0000080 Data[1]=aaaa0001 Age[1]=0
Set 1: Valid[0]=1 Tag[0]=0000000 Data[0]=cccc0001 Age[0]=0
      Valid[1]=1 Tag[1]=0000080 Data[1]=cccc0001 Age[1]=1
Set 2: Valid[0]=1 Tag[0]=0000000 Data[0]=11111114 Age[0]=0
      Valid[1]=1 Tag[1]=0000040 Data[1]=22222224 Age[1]=4
Set 3: Valid[0]=1 Tag[0]=0000000 Data[0]=aaaa0000 Age[0]=0
      Valid[1]=1 Tag[1]=0000040 Data[1]=22222225 Age[1]=4

Operation complete after 0 cycles
Hit: 1, Read Data: cccc0001

Cache State at time 1415000:
Set 0: Valid[0]=1 Tag[0]=0000000 Data[0]=cccc0000 Age[0]=4
      Valid[1]=1 Tag[1]=0000080 Data[1]=aaaa0001 Age[1]=0
Set 1: Valid[0]=1 Tag[0]=0000000 Data[0]=cccc0001 Age[0]=1
      Valid[1]=1 Tag[1]=0000080 Data[1]=cccc0001 Age[1]=0
Set 2: Valid[0]=1 Tag[0]=0000000 Data[0]=11111114 Age[0]=0
      Valid[1]=1 Tag[1]=0000040 Data[1]=22222224 Age[1]=4
Set 3: Valid[0]=1 Tag[0]=0000000 Data[0]=aaaa0000 Age[0]=0
      Valid[1]=1 Tag[1]=0000040 Data[1]=22222225 Age[1]=4


Testing LRU for Set 2
Operation complete after 0 cycles
Hit: 1, Read Data: cccc0001

Cache State at time 1455000:
Set 0: Valid[0]=1 Tag[0]=0000000 Data[0]=cccc0000 Age[0]=4
      Valid[1]=1 Tag[1]=0000080 Data[1]=aaaa0001 Age[1]=0
Set 1: Valid[0]=1 Tag[0]=0000000 Data[0]=cccc0001 Age[0]=4
      Valid[1]=1 Tag[1]=0000080 Data[1]=aaaa0002 Age[1]=0
Set 2: Valid[0]=1 Tag[0]=0000000 Data[0]=11111114 Age[0]=0
      Valid[1]=1 Tag[1]=0000040 Data[1]=22222224 Age[1]=4
Set 3: Valid[0]=1 Tag[0]=0000000 Data[0]=aaaa0000 Age[0]=0
      Valid[1]=1 Tag[1]=0000040 Data[1]=22222225 Age[1]=4

Operation complete after 0 cycles
Hit: 1, Read Data: aaaa0002

Cache State at time 1495000:
Set 0: Valid[0]=1 Tag[0]=0000000 Data[0]=cccc0000 Age[0]=4
      Valid[1]=1 Tag[1]=0000080 Data[1]=aaaa0001 Age[1]=0
Set 1: Valid[0]=1 Tag[0]=0000000 Data[0]=cccc0001 Age[0]=4
      Valid[1]=1 Tag[1]=0000080 Data[1]=aaaa0002 Age[1]=0
Set 2: Valid[0]=1 Tag[0]=0000000 Data[0]=bbbb0002 Age[0]=0
      Valid[1]=1 Tag[1]=0000040 Data[1]=22222224 Age[1]=6
Set 3: Valid[0]=1 Tag[0]=0000000 Data[0]=aaaa0000 Age[0]=0
      Valid[1]=1 Tag[1]=0000040 Data[1]=22222225 Age[1]=4

Operation complete after 0 cycles
Hit: 1, Read Data: bbbb0002

Cache State at time 1535000:
Set 0: Valid[0]=1 Tag[0]=0000000 Data[0]=cccc0000 Age[0]=4
      Valid[1]=1 Tag[1]=0000080 Data[1]=aaaa0001 Age[1]=0
Set 1: Valid[0]=1 Tag[0]=0000000 Data[0]=cccc0001 Age[0]=4
      Valid[1]=1 Tag[1]=0000080 Data[1]=aaaa0002 Age[1]=0
Set 2: Valid[0]=1 Tag[0]=0000000 Data[0]=bbbb0002 Age[0]=0
      Valid[1]=1 Tag[1]=0000040 Data[1]=bbbb0002 Age[1]=1
Set 3: Valid[0]=1 Tag[0]=0000000 Data[0]=aaaa0000 Age[0]=0
      Valid[1]=1 Tag[1]=0000040 Data[1]=22222225 Age[1]=4

Operation complete after 0 cycles
Hit: 1, Read Data: bbbb0002

Cache State at time 1575000:
Set 0: Valid[0]=1 Tag[0]=0000000 Data[0]=cccc0000 Age[0]=4
      Valid[1]=1 Tag[1]=0000080 Data[1]=aaaa0001 Age[1]=0
Set 1: Valid[0]=1 Tag[0]=0000000 Data[0]=cccc0001 Age[0]=4
      Valid[1]=1 Tag[1]=0000080 Data[1]=aaaa0002 Age[1]=0
Set 2: Valid[0]=1 Tag[0]=0000000 Data[0]=cccc0002 Age[0]=0
      Valid[1]=1 Tag[1]=0000040 Data[1]=bbbb0002 Age[1]=4
Set 3: Valid[0]=1 Tag[0]=0000000 Data[0]=aaaa0000 Age[0]=0
      Valid[1]=1 Tag[1]=0000040 Data[1]=22222225 Age[1]=4

Operation complete after 0 cycles
Hit: 1, Read Data: cccc0002

Cache State at time 1615000:
Set 0: Valid[0]=1 Tag[0]=0000000 Data[0]=cccc0000 Age[0]=4
      Valid[1]=1 Tag[1]=0000080 Data[1]=aaaa0001 Age[1]=0
Set 1: Valid[0]=1 Tag[0]=0000000 Data[0]=cccc0001 Age[0]=4
      Valid[1]=1 Tag[1]=0000080 Data[1]=aaaa0002 Age[1]=0
Set 2: Valid[0]=1 Tag[0]=0000000 Data[0]=cccc0002 Age[0]=0
      Valid[1]=1 Tag[1]=0000080 Data[1]=cccc0002 Age[1]=1
Set 3: Valid[0]=1 Tag[0]=0000000 Data[0]=aaaa0000 Age[0]=0
      Valid[1]=1 Tag[1]=0000040 Data[1]=22222225 Age[1]=4

Operation complete after 0 cycles
Hit: 1, Read Data: cccc0002

Cache State at time 1655000:
Set 0: Valid[0]=1 Tag[0]=0000000 Data[0]=cccc0000 Age[0]=4
      Valid[1]=1 Tag[1]=0000080 Data[1]=aaaa0001 Age[1]=0
Set 1: Valid[0]=1 Tag[0]=0000000 Data[0]=cccc0001 Age[0]=4
      Valid[1]=1 Tag[1]=0000080 Data[1]=aaaa0002 Age[1]=0
Set 2: Valid[0]=1 Tag[0]=0000000 Data[0]=cccc0002 Age[0]=1
      Valid[1]=1 Tag[1]=0000080 Data[1]=cccc0002 Age[1]=0
Set 3: Valid[0]=1 Tag[0]=0000000 Data[0]=aaaa0000 Age[0]=0
      Valid[1]=1 Tag[1]=0000040 Data[1]=22222225 Age[1]=4


Testing LRU for Set 3
Operation complete after 0 cycles
Hit: 1, Read Data: cccc0002

Cache State at time 1695000:
Set 0: Valid[0]=1 Tag[0]=0000000 Data[0]=cccc0000 Age[0]=4
      Valid[1]=1 Tag[1]=0000080 Data[1]=aaaa0001 Age[1]=0
Set 1: Valid[0]=1 Tag[0]=0000000 Data[0]=cccc0001 Age[0]=4
      Valid[1]=1 Tag[1]=0000080 Data[1]=aaaa0002 Age[1]=0
Set 2: Valid[0]=1 Tag[0]=0000000 Data[0]=cccc0002 Age[0]=4
      Valid[1]=1 Tag[1]=0000080 Data[1]=aaaa0003 Age[1]=0
Set 3: Valid[0]=1 Tag[0]=0000000 Data[0]=aaaa0000 Age[0]=0
      Valid[1]=1 Tag[1]=0000040 Data[1]=22222225 Age[1]=4

Operation complete after 0 cycles
Hit: 1, Read Data: aaaa0003

Cache State at time 1735000:
Set 0: Valid[0]=1 Tag[0]=0000000 Data[0]=cccc0000 Age[0]=4
      Valid[1]=1 Tag[1]=0000080 Data[1]=aaaa0001 Age[1]=0
Set 1: Valid[0]=1 Tag[0]=0000000 Data[0]=cccc0001 Age[0]=4
